INDEX VERSION 1.126+F:\android Pracrice\30.12.2013\.metadata\.plugins\org.eclipse.jdt.core
3015671029.index
3752142504.index
384216248.index
3322771400.index
2361190672.index
1144188029.index
2708239607.index
4018706093.index
2582069912.index
2588292726.index
1820024274.index
1897595705.index
728132027.index
2706502329.index
3626931047.index
4149142647.index
1086967617.index
683184654.index
3256372620.index
2010067252.index
472138884.index
341574074.index
