<?xml version="1.0" encoding="UTF-8"?>
<session version="1.0">
<refactoring comment="Copy element &apos;raw&apos; to &apos;res&apos;&#x0D;&#x0A;- Original project: &apos;Azan&apos;&#x0D;&#x0A;- Destination element: &apos;res&apos;&#x0D;&#x0A;- Original element: &apos;raw&apos;" description="Copy folder" element1="res/raw" files="0" flags="589830" folders="1" id="org.eclipse.jdt.ui.copy" policy="org.eclipse.jdt.ui.copyResources" stamp="1375784565027" target="/CsteClassNotifyer/res" units="0" version="1.0"/>
</session>