<?xml version="1.0" encoding="UTF-8"?>
<session version="1.0">
<refactoring comment="Delete resource &apos;Sound&apos;" deleteContents="false" description="Delete resource &apos;Sound&apos;" element1="/Sound" flags="7" id="org.eclipse.ltk.core.refactoring.delete.resources" resources="1" stamp="1373960289884"/>
</session>