<?xml version="1.0" encoding="UTF-8"?>
<session version="1.0">
<refactoring comment="Copy 9 elements to &apos;drawable-hdpi&apos;&#x0D;&#x0A;- Original project: &apos;SlideShow&apos;&#x0D;&#x0A;- Destination element: &apos;drawable-hdpi&apos;&#x0D;&#x0A;- Original elements:&#x0D;&#x0A;     d.jpg&#x0D;&#x0A;     g.jpg&#x0D;&#x0A;     i.jpg&#x0D;&#x0A;     h.jpg&#x0D;&#x0A;     b.jpg&#x0D;&#x0A;     a.jpg&#x0D;&#x0A;     c.jpg&#x0D;&#x0A;     e.jpg&#x0D;&#x0A;     f.jpg" description="Copy files" element1="res/drawable-hdpi/d.jpg" element2="res/drawable-hdpi/g.jpg" element3="res/drawable-hdpi/i.jpg" element4="res/drawable-hdpi/h.jpg" element5="res/drawable-hdpi/b.jpg" element6="res/drawable-hdpi/a.jpg" element7="res/drawable-hdpi/c.jpg" element8="res/drawable-hdpi/e.jpg" element9="res/drawable-hdpi/f.jpg" files="9" flags="589830" folders="0" id="org.eclipse.jdt.ui.copy" policy="org.eclipse.jdt.ui.copyResources" stamp="1379564026509" target="/Slide/res/drawable-hdpi" units="0" version="1.0"/>
</session>